%YAML 1.1
%TAG !u! tag:unity3d.com,2011:
--- !u!1045 &1
EditorBuildSettings:
  m_ObjectHideFlags: 0
  serializedVersion: 2
  m_Scenes:
  - enabled: 1
    path: Assets/Scenes/MenuScene.unity
    guid: a44ea871f26fa6b4fad04b2c0f5e55f9
  - enabled: 1
    path: Assets/Scenes/GameScene.unity
    guid: f24d5b90f38a51f4b837c1743e8e193b
  m_configObjects: {}
