%YAML 1.1
%TAG !u! tag:unity3d.com,2011:
--- !u!1 &7889506606446257348
GameObject:
  m_ObjectHideFlags: 0
  m_CorrespondingSourceObject: {fileID: 0}
  m_PrefabInstance: {fileID: 0}
  m_PrefabAsset: {fileID: 0}
  serializedVersion: 6
  m_Component:
  - component: {fileID: 7889506606446257349}
  - component: {fileID: 4731135164612970726}
  m_Layer: 0
  m_Name: Spawner
  m_TagString: FlowerSpawner
  m_Icon: {fileID: 0}
  m_NavMeshLayer: 0
  m_StaticEditorFlags: 0
  m_IsActive: 1
--- !u!4 &7889506606446257349
Transform:
  m_ObjectHideFlags: 0
  m_CorrespondingSourceObject: {fileID: 0}
  m_PrefabInstance: {fileID: 0}
  m_PrefabAsset: {fileID: 0}
  m_GameObject: {fileID: 7889506606446257348}
  m_LocalRotation: {x: 0, y: 0, z: 0, w: 1}
  m_LocalPosition: {x: 0, y: 0, z: 0}
  m_LocalScale: {x: 1, y: 1, z: 1}
  m_Children: []
  m_Father: {fileID: 0}
  m_RootOrder: 0
  m_LocalEulerAnglesHint: {x: 0, y: 0, z: 0}
--- !u!114 &4731135164612970726
MonoBehaviour:
  m_ObjectHideFlags: 0
  m_CorrespondingSourceObject: {fileID: 0}
  m_PrefabInstance: {fileID: 0}
  m_PrefabAsset: {fileID: 0}
  m_GameObject: {fileID: 7889506606446257348}
  m_Enabled: 1
  m_EditorHideFlags: 0
  m_Script: {fileID: 11500000, guid: e0bf8309948381e46ba8efc2d9c11537, type: 3}
  m_Name: 
  m_EditorClassIdentifier: 
  flowers:
  - {fileID: 7432482600881527606, guid: 09cfdcf8de040754ca8ccb856f57d44e, type: 3}
  - {fileID: 8829076197074007073, guid: de4aaa384c79d774ca8eefa72cc58839, type: 3}
  - {fileID: 4294070038844141708, guid: 951052837f0eeea4891ad1a538ae1e88, type: 3}
  - {fileID: 2299836373176012113, guid: 18579fdbbd990084784f4165785f867e, type: 3}
  - {fileID: 5735703823300075668, guid: c2ba1c9fe6f531a4bb43094bdbd0467d, type: 3}
  timeToGrow: 3
  isFlower: 0
